version="1.7"
tags={
	"Total Conversion"
}
name="Y2Kmod"
replace_path="common/bookmark_portraits"
replace_path="common/bookmarks"
replace_path="common/religion/religions"
replace_path="history/characters"
replace_path="history/provinces"
replace_path="history/titles"
picture="thumbnail.png"
supported_version="1.10*"
path="mod/y2kmod/Y2Kmod"
remote_file_id="2524797018"