﻿k_khorasan = {
	867.1.1 = {	change_development_level = 7 }
	1066.1.1 = { change_development_level = 10 }
	
	856.1.1 = {
		 163100
	}

	1066.1.1 = {
		liege = e_persia
		 3042
		effect = {
			if = {
				limit = {
					exists = holder
					has_dlc_feature = royal_court
				}
				 {
					set_court_language = language_iranian # Iranian was the official court language of the Seljuks
					if = {
						limit = { NOT = { knows_court_language_of = this } }
						learn_court_language_of = this
					}
				}
			}
		}
	}
	1073.1.1 = {
		 0
	}
}
d_nishapur = {
	867.1.1 = {	change_development_level = 8 }
	1066.1.1 = { change_development_level = 12 }

	867.1.1 = {
		 163100
	}
	1066.1.1 = {
		liege = k_khorasan
		 3042
	}
	1073.1.1 = {
		 0
	}
}


c_nishapur = {
	867.1.1 = {	change_development_level = 10 }
	1066.1.1 = { change_development_level = 16 }

	650.1.1 = {
		liege = d_merv
	}
	
	768.1.1 = {
		 188602 # Homayd ibn Qahtaba
	}
	
	862.1.1 = {
		 163100
	}
	867.1.1 = {
		liege = d_nishapur
	}
	
	1066.1.1 = {
		 3042
	}
	1073.1.1 = {
		liege = d_merv
		 93123
	}
	1078.1.1 = {
		 93125
	}
	1098.1.1 = {
		 93128
	}
	1100.1.1 = {
		 93129
	}
	1110.1.1 = {
		 93126
	}
	1152.1.1 = {
		 93127
	}
	1161.1.1 = {
		 144101
	}
	
	1172.3.1 = {
		 230000
	}
	1200.1.1 = {
		 93052
	}
	1220.1.1 = {
		 194308
	}
	1221.1.1 = {
		 125520
	}
	1232.1.2 = {
		 478011
	}
	1240.1.1 = {
		 125526
	}
	1266.1.2 = {
		 125527
	}
	1300.1.1 = {
		 45102
	}
	1335.1.1 = {
		 45100
	}

}


c_tus = {
	650.1.1 = {
		liege = d_merv
	}
	
	768.1.1 = {
		 188690 # fictitious assignment
	}
	
	862.1.1 = {
		 163100
	}
	867.1.1 = {
		liege = d_nishapur
	}
	
	1066.1.1 = {
		liege = e_persia
		 3050 #Hassan AKA Nizam al-Mulk
	}
	1092.10.14 = {
		liege = d_merv
		 93125
	}
	1098.1.1 = {
		 93128
	}
	1100.1.1 = {
		 93129
	}
	1110.1.1 = {
		 93126
	}
	1152.1.1 = {
		 93127
	}
	1161.1.1 = {
		 144101
	}
	
	1172.3.1 = {
		 230000
	}
	1200.1.1 = {
		 93052
	}
	1220.1.1 = {
		 194308
	}
	1221.1.1 = {
		 125520
	}
	1232.1.2 = {
		 478011
	}
	1240.1.1 = {
		 125526
	}
	1266.1.2 = {
		 125527
	}
	1300.1.1 = {
		 45102
	}
	1335.1.1 = {
		 45100
	}

}


c_samaiqan = {
	650.1.1 = {
		liege = d_merv
	}
	
	768.1.1 = {
		 188602 # Homayd ibn Qahtaba
	}
	
	862.1.1 = {
		 163100
	}
	867.1.1 = {
		liege = d_nishapur
	}
	
	1066.1.1 = {
		liege = d_nishapur
		 tajik0003
	}
	1073.1.1 = {
		liege = d_merv
		 93123
	}
	1078.1.1 = {
		 93125
	}
	1098.1.1 = {
		 93128
	}
	1100.1.1 = {
		 93129
	}
	1110.1.1 = {
		 93126
	}
	1152.1.1 = {
		 93127
	}
	1161.1.1 = {
		 144101
	}
	
	1172.3.1 = {
		 230000
	}
	1200.1.1 = {
		 93052
	}
	1220.1.1 = {
		 194308
	}
	1221.1.1 = {
		 125520
	}
	1232.1.2 = {
		 478011
	}
	1240.1.1 = {
		 125526
	}
	1266.1.2 = {
		 125527
	}
	1300.1.1 = {
		 45102
	}
	1335.1.1 = {
		 45100
	}

}


c_juwain = {
	650.1.1 = {
		liege = d_merv
	}
	
	768.1.1 = {
		 188602 # Homayd ibn Qahtaba
	}
	
	862.1.1 = {
		 163100
	}
	867.1.1 = {
		liege = d_nishapur
	}
	
	1066.1.1 = {
		 3042
	}
	1073.1.1 = {
		liege = d_merv
		 93123
	}
	1078.1.1 = {
		 93125
	}
	1098.1.1 = {
		 93128
	}
	1100.1.1 = {
		 93129
	}
	1110.1.1 = {
		 93126
	}
	1152.1.1 = {
		 93127
	}
	1161.1.1 = {
		 144101
	}
	
	1172.3.1 = {
		 230000
	}
	1200.1.1 = {
		 93052
	}
	1220.1.1 = {
		 194308
	}
	1221.1.1 = {
		 125520
	}
	1232.1.2 = {
		 478011
	}
	1240.1.1 = {
		 125526
	}
	1266.1.2 = {
		 125527
	}
	1300.1.1 = {
		 45102
	}
	1335.1.1 = {
		 45100
	}

}


c_baihaq = {
	867.1.1 = {	change_development_level = 3 }
	1066.1.1 = { change_development_level = 6 }
	
	650.1.1 = {
		liege = d_merv
	}
	
	768.1.1 = {
		 188602 # Homayd ibn Qahtaba
	}
	
	862.1.1 = {
		 163100
	}
	867.1.1 = {
		liege = d_nishapur
	}
	
	1066.1.1 = {
		 3042
	}
	1073.1.1 = {
		liege = d_merv
		 93123
	}
	1078.1.1 = {
		 93125
	}
	1098.1.1 = {
		 93128
	}
	1100.1.1 = {
		 93129
	}
	1110.1.1 = {
		 93126
	}
	1152.1.1 = {
		 93127
	}
	1161.1.1 = {
		 144101
	}
	
	1172.3.1 = {
		 230000
	}
	1200.1.1 = {
		 93052
	}
	1220.1.1 = {
		 194308
	}
	1221.1.1 = {
		 125520
	}
	1232.1.2 = {
		 478011
	}
	1240.1.1 = {
		 125526
	}
	1266.1.2 = {
		 125527
	}
	1300.1.1 = {
		 45102
	}
	1335.1.1 = {
		 45100
	}

}

c_damghan = {
	650.1.1 = {
		liege = d_merv
	}
	
	768.1.1 = {
		 188602 # Homayd ibn Qahtaba
	}
	
	862.1.1 = {
		 163100
	}
	867.1.1 = {
		liege = d_nishapur
	}
	
	1066.1.1 = {
		 3042
	}
	1073.1.1 = {
		liege = d_merv
		 93123
	}
	1078.1.1 = {
		 93125
	}
	1098.1.1 = {
		 93128
	}
	1100.1.1 = {
		 93129
	}
	1110.1.1 = {
		 93126
	}
	1152.1.1 = {
		 93127
	}
	1161.1.1 = {
		 144101
	}
	
	1172.3.1 = {
		 230000
	}
	1200.1.1 = {
		 93052
	}
	1220.1.1 = {
		 194308
	}
	1221.1.1 = {
		 125520
	}
	1232.1.2 = {
		 478011
	}
	1240.1.1 = {
		 125526
	}
	1266.1.2 = {
		 125527
	}
	1300.1.1 = {
		 45102
	}
	1335.1.1 = {
		 45100
	}

}


d_merv = {
	867.1.1 = {
		liege = k_khorasan
		 1000230508
	}
	
	#Seljuks
	1066.1.1 = {
		liege = e_persia
		 93129
	}
	#Burhanids
	1110.1.1 = 	{
		liege = "k_persia"
		 93108
	}
	#1141.1.1 =
	#{
	#	liege = "k_transoxiana"
	#}
	1141.1.1 = {
		 93109
	}
	1165.1.1 = {
		 93110
	}
	1170.1.1 = {
		 93111
	}
	1178.1.1 = {
		 93112
	}
	1185.1.1 = {
		 93113
	}
	1190.1.1 = {
		 93114
	}
	1191.1.1 = {
		 93115
	}
	1206.1.1 = {
		 93116
	}
	1207.1.1 = {
		liege = "k_persia"
	}
	1207.1.1 = {
		 93053
	}
	1220.1.1 = {
		 194303
	}
	1221.1.1 = {
		liege = e_mongol_empire
	}
	1221.1.1 = {
		 125520
	}
	#Chagatai khanate
	1227.12.2 = {
		liege = e_chagatai
		 93062
	}
	1242.1.1 = {
		 93064
	}
	1246.1.1 = {
		 93065
	}
	1252.1.1 = {
		 93064
	}
	1253.1.1 = {
		 93066
	}
	1260.1.1 = {
		 93068
	}
	1266.1.1 = {
		 93066
	}
	1266.9.1 = {
		 93070
	}
	1271.1.1 = {
		 93072
	}
	1272.1.1 = {
		 93074
	}
	1282.1.1 = {
		 93075
	}
	1307.1.1 = {
		 93076
	}
	1308.1.1 = {
		 93078
	}
	1309.1.1 = {
		 93079
	}
	1310.1.1 = {
		 93080
	}
	1318.1.1 = {
		 93079
	}
	1326.1.1 = {
		 93081
	}
	1329.1.1 = {
		 93082
	}
	1330.1.1 = {
		 93083
	}
	1334.1.1 = {
		 93084
	}
	1335.1.1 = {
		 93086
	}
}


c_merv = {
	867.1.1 = {	change_development_level = 10 }
	1066.1.1 = { change_development_level = 16 }
	
	650.1.1 = {
		liege = d_merv
	}
	
	768.1.1 = {
		 188602 # Homayd ibn Qahtaba
	}
	
	867.1.1 = {
		liege = d_merv
		 1000230508
	}
	
	#Seljuks
	1066.1.1 = {
		liege = e_persia
		 93129
	}
	#Burhanids
	1110.1.1 = 	{
		liege = "k_persia"
		 93108
	}
	1141.1.1 = {
		 93109
	}
	1165.1.1 = {
		 93110
	}
	1170.1.1 = {
		 93111
	}
	1178.1.1 = {
		 93112
	}
	1185.1.1 = {
		 93113
	}
	1190.1.1 = {
		 93114
	}
	1191.1.1 = {
		 93115
	}
	1206.1.1 = {
		 93116
	}
	1207.1.1 = {
		 93053
	}
	1220.1.1 = {
		 194303
	}
}


c_sarakhs = {
	650.1.1 = {
		liege = d_merv
	}
	
	768.1.1 = {
		 188602 # Homayd ibn Qahtaba
	}
	
	867.1.1 = {
		liege = d_merv
		 1000230508
	}
	
	#Seljuk vasals
	1066.1.1 = {
		 tajik0004
	}
	#Burhanids
	1110.1.1 = 	{
		liege = "k_persia"
		 93108
	}
	1141.1.1 = {
		 93109
	}
	1165.1.1 = {
		 93110
	}
	1170.1.1 = {
		 93111
	}
	1178.1.1 = {
		 93112
	}
	1185.1.1 = {
		 93113
	}
	1190.1.1 = {
		 93114
	}
	1191.1.1 = {
		 93115
	}
	1206.1.1 = {
		 93116
	}
	1207.1.1 = {
		 93053
	}
	1220.1.1 = {
		 194303
	}
}


c_marvarrud = {
	867.1.1 = {	change_development_level = 8 }
	1066.1.1 = { change_development_level = 12 }
	
	650.1.1 = {
		liege = d_merv
	}
	
	768.1.1 = {
		 188602 # Homayd ibn Qahtaba
	}
	
	867.1.1 = {
		liege = d_merv
		 1000230508
	}
	
	1066.1.1 = {
		liege = e_persia
		 1000229904
	}

	1083.1.2 = {
		 144134
		liege = k_kabulistan
	}
	1106.1.1 = {
		 93108
	}
	1141.1.1 = {
		 93109
	}
	1165.1.1 = {
		 93110
	}
	1170.1.1 = {
		 93111
	}
	1178.1.1 = {
		 93112
	}
	1185.1.1 = {
		 93113
	}
	1190.1.1 = {
		 93114
	}
	1191.1.1 = {
		 93115
	}
	1206.1.1 = {
		 93116
	}
	1207.1.1 = {
		 93053
	}
	1220.1.1 = {
		 194303
	}
}


c_rivsharan = {
	650.1.1 = {
		liege = d_merv
	}
	
	768.1.1 = {
		 188602 # Homayd ibn Qahtaba
	}
	
	867.1.1 = {
		liege = d_merv
		 1000230508
	}
	
	1066.1.1 = {
		liege = e_persia
		 1229924 #Bori-Bars b. Alp Arslan
	}
	1096.1.1 = {
		 144134
		liege = k_kabulistan
	}
	1106.1.1 = {
		 93108
	}
	1141.1.1 = {
		 93109
	}
	1165.1.1 = {
		 93110
	}
	1170.1.1 = {
		 93111
	}
	1178.1.1 = {
		 93112
	}
	1185.1.1 = {
		 93113
	}
	1190.1.1 = {
		 93114
	}
	1191.1.1 = {
		 93115
	}
	1206.1.1 = {
		 93116
	}
	1207.1.1 = {
		 93053
	}
	1220.1.1 = {
		 194303
	}
}


c_guzgan = {
	650.1.1 = {
		liege = d_merv
	}
	
	768.1.1 = {
		 188602 # Homayd ibn Qahtaba
	}
	
	864.1.1 = {
		 1230300 #Farighun Farighunid
	}
	895.1.1 = {
		 1230301 #Ahmad Farighunid
	}
	
	1066.1.1 = {
		liege = e_persia
		 93130
	}
	#Burhanids
	1080.1.1 = {
		 144134
	}
	1106.1.1 = {
		 93108
	}
	1141.1.1 = {
		 93109
	}
	1165.1.1 = {
		 93110
	}
	1170.1.1 = {
		 93111
	}
	1178.1.1 = {
		 93112
	}
	1185.1.1 = {
		 93113
	}
	1190.1.1 = {
		 93114
	}
	1191.1.1 = {
		 93115
	}
	1206.1.1 = {
		 93116
	}
	1207.1.1 = {
		 93053
	}
	1220.1.1 = {
		 194303
	}
}


c_amol = {
	650.1.1 = {
		liege = d_merv
	}
	
	768.1.1 = {
		 188602 # Homayd ibn Qahtaba
	}
	
	867.1.1 = {
		liege = d_merv
		 1000230508
	}
	
	#Seljuks
	1066.1.1 = {
		liege = e_persia
		 93129
	}
	#Burhanids
	1110.1.1 = 	{
		liege = "k_persia"
		 93108
	}
	1141.1.1 = {
		 93109
	}
	1165.1.1 = {
		 93110
	}
	1170.1.1 = {
		 93111
	}
	1178.1.1 = {
		 93112
	}
	1185.1.1 = {
		 93113
	}
	1190.1.1 = {
		 93114
	}
	1191.1.1 = {
		 93115
	}
	1206.1.1 = {
		 93116
	}
	1207.1.1 = {
		 93053
	}
	1220.1.1 = {
		 194303
	}
}


c_zamm = {
	650.1.1 = {
		liege = d_merv
	}
	
	768.1.1 = {
		 188602 # Homayd ibn Qahtaba
	}
	
	867.1.1 = {
		liege = d_merv
		 1000230508
	}
	
	#Seljuks
	1066.1.1 = {
		liege = e_persia
		 93129
	}
	#Burhanids
	1110.1.1 = 	{
		liege = "k_persia"
		 93108
	}
	1141.1.1 = {
		 93109
	}
	1165.1.1 = {
		 93110
	}
	1170.1.1 = {
		 93111
	}
	1178.1.1 = {
		 93112
	}
	1185.1.1 = {
		 93113
	}
	1190.1.1 = {
		 93114
	}
	1191.1.1 = {
		 93115
	}
	1206.1.1 = {
		 93116
	}
	1207.1.1 = {
		 93053
	}
	1220.1.1 = {
		 194303
	}
}


d_ghur = {
	867.1.1 = {	change_development_level = 3 }
	1066.1.1 = { change_development_level = 6 }

	864.1.1 = {
		 1230318 #Zahhak Ghurid
	}
	880.1.1 = {
		 93132 #Shansab Ghurid
	}
	910.1.1 = {
		 1230316 #Suri Ghurid
	}
	940.1.1 = {
		 1230317 #Mohammad Ghurid
	}
	980.1.1 = {
		 93133 #Mohammad Ghurid
	}
	1011.1.1 = {
		 93135 #Shith Ghurid
	}
	1029.1.1 = {
		 93136 #Abbas Ghurid
	}
	1059.1.1 = {
		liege = k_kabulistan
		 93137
	}
	1070.1.1 = {
		 93138
	}
	1100.1.1 = {
		 93139
	}
	1146.1.1 = {
		 93140
	}
	1149.1.1 = {
		 93141
	}
	1155.1.1 = {
		 93143
	}
	1161.1.1 = {
		 144140
	}
	1163.1.1 = {
		 144141
	}
	
	1203.1.1 = {
		 144142
	}
	
	1206.3.15 = {
		 144143
	}
	1212.1.1 = {
		 93144
	}
	1213.1.1 = {
		 93145
	}
	1214.1.1 = {
		 93149
	}
	
	1215.1.1 = {
		 125501
	}
	1227.12.2 = {
		 93057
	}
	1250.1.1 = {
		 93058
	}
	1280.1.1 = {
		 93059
	}
	1310.1.1 = {
		 93060
	}
}


c_ghur = {
	867.1.1 = {	change_development_level = 7 }
	1066.1.1 = { change_development_level = 10 }
	
	650.1.1 = {
		liege = d_merv
	}
	
	768.1.1 = {
		 188602 # Homayd ibn Qahtaba
	}
	
	864.1.1 = {
		liege = 0
		 1230318 #Zahhak Ghurid
	}
	880.1.1 = {
		 93132 #Shansab Ghurid
	}
	910.1.1 = {
		 1230316 #Suri Ghurid
	}
	940.1.1 = {
		 1230317 #Mohammad Ghurid
	}
	980.1.1 = {
		 93133 #Mohammad Ghurid
	}
	1011.1.1 = {
		 93135 #Shith Ghurid
	}
	1029.1.1 = {
		 93136 #Abbas Ghurid
	}
	1059.1.1 = {
		liege = k_kabulistan
		 93137
	}
	1070.1.1 = {
		 93138
	}
	1100.1.1 = {
		 93139
	}
	1146.1.1 = {
		 93140
	}
	1149.1.1 = {
		 93141
	}
	1155.1.1 = {
		 93143
	}
	1161.1.1 = {
		 144140
	}
	1163.1.1 = {
		 144141
	}
	
	1203.1.1 = {
		 144142
	}
	
	1206.3.15 = {
		 144143
	}
	1212.1.1 = {
		 93144
	}
	1213.1.1 = {
		 93145
	}
	1214.1.1 = {
		 93149
	}
	
	1215.1.1 = {
		 125501
	}
	1227.12.2 = {
		 93057
	}
	1250.1.1 = {
		 93058
	}
	1280.1.1 = {
		 93059
	}
	1310.1.1 = {
		 93060
	}

}


c_darmashan = {
	650.1.1 = {
		liege = d_merv
	}
	
	768.1.1 = {
		 188602 # Homayd ibn Qahtaba
	}
	
	864.1.1 = {
		liege = 0
		 1230318 #Zahhak Ghurid
	}
	880.1.1 = {
		 93132 #Shansab Ghurid
	}
	910.1.1 = {
		 1230316 #Suri Ghurid
	}
	940.1.1 = {
		 1230317 #Mohammad Ghurid
	}
	980.1.1 = {
		 93133 #Mohammad Ghurid
	}
	1011.1.1 = {
		 93135 #Shith Ghurid
	}
	1029.1.1 = {
		 93136 #Abbas Ghurid
	}
	1059.1.1 = {
		liege = k_kabulistan
		 93137
	}
	1070.1.1 = {
		 93138
	}
	1100.1.1 = {
		 93139
	}
	1146.1.1 = {
		 93140
	}
	1149.1.1 = {
		 93141
	}
	1155.1.1 = {
		 93143
	}
	1161.1.1 = {
		 144140
	}
	1163.1.1 = {
		 144141
	}
	
	1203.1.1 = {
		 144142
	}
	
	1206.3.15 = {
		 144143
	}
	1212.1.1 = {
		 93144
	}
	1213.1.1 = {
		 93145
	}
	1214.1.1 = {
		 93149
	}
	
	1215.1.1 = {
		 125501
	}
	1227.12.2 = {
		 93057
	}
	1250.1.1 = {
		 93058
	}
	1280.1.1 = {
		 93059
	}
	1310.1.1 = {
		 93060
	}

}


c_upper_ghur = {
	650.1.1 = {
		liege = d_merv
	}
	
	768.1.1 = {
		 188602 # Homayd ibn Qahtaba
	}
	
	864.1.1 = {
		liege = 0
		 1230318 #Zahhak Ghurid
	}
	880.1.1 = {
		 93132 #Shansab Ghurid
	}
	910.1.1 = {
		 1230316 #Suri Ghurid
	}
	940.1.1 = {
		 1230317 #Mohammad Ghurid
	}
	980.1.1 = {
		 93133 #Mohammad Ghurid
	}
	1011.1.1 = {
		 93135 #Shith Ghurid
	}
	1029.1.1 = {
		 93136 #Abbas Ghurid
	}
	1059.1.1 = {
		liege = k_kabulistan
		 93137
	}
	1070.1.1 = {
		 93138
	}
	1100.1.1 = {
		 93139
	}
	1146.1.1 = {
		 93140
	}
	1149.1.1 = {
		 93141
	}
	1155.1.1 = {
		 93143
	}
	1161.1.1 = {
		 144140
	}
	1163.1.1 = {
		 144141
	}
	
	1203.1.1 = {
		 144142
	}
	
	1206.3.15 = {
		 144143
	}
	1212.1.1 = {
		 93144
	}
	1213.1.1 = {
		 93145
	}
	1214.1.1 = {
		 93149
	}
	
	1215.1.1 = {
		 125501
	}
	1227.12.2 = {
		 93057
	}
	1250.1.1 = {
		 93058
	}
	1280.1.1 = {
		 93059
	}
	1310.1.1 = {
		 93060
	}

}


d_herat = {
	867.1.1 = {	change_development_level = 3 }
	1066.1.1 = { change_development_level = 6 }

	856.1.1 = {
		liege = k_khorasan
		 163156 # Ibrahim Samanid
	}
	1058.1.1 = {
		liege = e_persia
		 turkish0002 #Toghan-Shah b. Chaghri Beg
	}
	1080.1.1 = {
		 0
	}
}


c_herat = {
	867.1.1 = {	change_development_level = 8 }
	1066.1.1 = { change_development_level = 12 }

	760.1.1 = {
		 188688 # Ruzaiq Tahirid
		liege = d_herat
	}
	782.1.1 = {
		 188687 # Husayn
	}
	806.1.1 = {
		 188686 # Tahir
	}
	819.1.1 = {
		 163155 # Ilyas Samanid
	}
	856.1.1 = {
		liege = d_herat
		 163156 # Ibrahim Samanid
	}
	
	#Seljuks
	1057.1.1 = {
		liege = d_sistan
		 1000229901 # Musa Yabghu
	}
	1058.1.1 = {
		 turkish0002 #Toghan-Shah b. Chaghri Beg
	}
	1066.1.1 = {
		 1229924 #Bori-Bars b. Alp Arslan
	}
	
	#ahistorical - Ghaznavids again
	1096.1.1 = {
		 93138
	}
	1100.1.1 = {
		liege = "d_merv"
		 93139
	}
	1140.1.1 = {
		 93140
	}
	1149.1.1 = {
		 93150
	}
	1157.5.8 = {
		liege = "d_sistan"
	}
	1180.1.1 = {
		 93151
	}
	
	1210.1.1 = {
		 93153
	}
	1220.1.1 = {
		 194303
	}
	1245.1.1 =
	
	{
		 93154
	}
	1277.1.1 = {
		 93155
	}
	1295.1.1 = {
		 93156
	}
	1308.1.1 = {
		 93157
	}
	1330.1.1 = {
		 93158
	}
	1332.1.1 = {
		liege = 0
		 93159
	}
	
}


c_bakharz = {
	760.1.1 = {
		 188688 # Ruzaiq Tahirid
		liege = d_herat
	}
	782.1.1 = {
		 188687 # Husayn
	}
	806.1.1 = {
		 188686 # Tahir
	}
	819.1.1 = {
		 163155 # Ilyas Samanid
	}
	856.1.1 = {
		liege = d_herat
		 163156 # Ibrahim Samanid
	}

	1058.1.1 = {
		liege = e_persia
		 turkish0002 #Toghan-Shah b. Chaghri Beg
	}
	1080.1.1 = {
		liege = "d_sistan"
		 93138
	}
	1100.1.1 = {
		liege = "d_merv"
		 93139
	}
	1140.1.1 = {
		 93140
	}
	1149.1.1 = {
		 93150
	}
	1157.5.8 = {
		liege = "d_sistan"
	}
	1180.1.1 = {
		 93151
	}
	
	1210.1.1 = {
		 93153
	}
	1220.1.1 = {
		 194303
	}
	1245.1.1 = {
		 93154
	}
	1277.1.1 = {
		 93155
	}
	1295.1.1 = {
		 93156
	}
	1308.1.1 = {
		 93157
	}
	1330.1.1 = {
		 93158
	}
	1332.1.1 = {
		liege = 0
		 93159
	}

}


c_badghis = {
	760.1.1 = {
		 188688 # Ruzaiq Tahirid
		liege = d_herat
	}
	782.1.1 = {
		 188687 # Husayn
	}
	806.1.1 = {
		 188686 # Tahir
	}
	819.1.1 = {
		 163155 # Ilyas Samanid
	}
	856.1.1 = {
		liege = d_herat
		 163156 # Ibrahim Samanid
	}
	
	1058.1.1 = {
		liege = e_persia
		 turkish0002 #Toghan-Shah b. Chaghri Beg
	}
	1080.1.1 = {
		liege = "d_sistan"
		 93138
	}
	1100.1.1 = {
		liege = "d_merv"
		 93139
	}
	1140.1.1 = {
		 93140
	}
	1149.1.1 = {
		 93150
	}
	1157.5.8 = {
		liege = "d_sistan"
	}
	1180.1.1 = {
		 93151
	}
	
	1210.1.1 = {
		 93153
	}
	1220.1.1 = {
		 194303
	}
	1245.1.1 = {
		 93154
	}
	1277.1.1 = {
		 93155
	}
	1295.1.1 = {
		 93156
	}
	1308.1.1 = {
		 93157
	}
	1330.1.1 = {
		 93158
	}
	1332.1.1 = {
		liege = 0
		 93159
	}

}


c_sabzevar = {
	867.1.1 = {	change_development_level = 5 }
	1066.1.1 = { change_development_level = 8 }
	
	760.1.1 = {
		 188688 # Ruzaiq Tahirid
		liege = d_herat
	}
	782.1.1 = {
		 188687 # Husayn
	}
	806.1.1 = {
		 188686 # Tahir
	}
	819.1.1 = {
		 163155 # Ilyas Samanid
	}
	856.1.1 = {
		liege = d_herat
		 163156 # Ibrahim Samanid
	}
	
	#Seljuks
	1057.1.1 = {
		liege = d_sistan
		 1000229901 # Musa Yabghu
	}
	1058.1.1 = {
		 turkish0001 #Qara-Arslan Bori
	}
	1066.1.1 = {
		 1000229905 #Maudud b. Er-Tash
	}
	#ahistorical - Ghaznavids again
	1093.1.2 = {
		 93138
	}
	1100.1.1 = {
		liege = "d_merv"
		 93139
	}
	1140.1.1 = {
		 93140
	}
	1149.1.1 = {
		 93150
	}
	1157.5.8 = {
		liege = "d_sistan"
	}
	1180.1.1 = {
		 93151
	}
	
	1210.1.1 = {
		 93153
	}
	1220.1.1 = {
		 194303
	}
	1245.1.1 = {
		 93154
	}
	1277.1.1 = {
		 93155
	}
	1295.1.1 = {
		 93156
	}
	1308.1.1 = {
		 93157
	}
	1330.1.1 = {
		 93158
	}
	1332.1.1 = {
		liege = 0
		 93159
	}

}


c_zirkuh = {
	760.1.1 = {
		 188688 # Ruzaiq Tahirid
		liege = d_herat
	}
	782.1.1 = {
		 188687 # Husayn
	}
	806.1.1 = {
		 188686 # Tahir
	}
	819.1.1 = {
		 163155 # Ilyas Samanid
	}
	856.1.1 = {
		liege = d_herat
		 163156 # Ibrahim Samanid
	}

	1058.1.1 = {
		 tajik0001
	}
	1080.1.1 = {
		liege = "d_sistan"
	}
	1080.1.1 = {
		 93138
	}
	1100.1.1 = {
		liege = "d_merv"
		 93139
	}
	1140.1.1 = {
		 93140
	}
	1149.1.1 = {
		 93150
	}
	1157.5.8 = {
		liege = "d_sistan"
	}
	1180.1.1 = {
		 93151
	}
	
	1210.1.1 = {
		 93153
	}
	1220.1.1 = {
		 194303
	}
	1245.1.1 = {
		 93154
	}
	1277.1.1 = {
		 93155
	}
	1295.1.1 = {
		 93156
	}
	1308.1.1 = {
		 93157
	}
	1330.1.1 = {
		 93158
	}
	1332.1.1 = {
		liege = 0
		 93159
	}

}

d_balkh = {
	867.1.1 = {	change_development_level = 3 }
	1066.1.1 = { change_development_level = 6 }
}

c_balkh = {
	867.1.1 = {	change_development_level = 8 }
	1066.1.1 = { change_development_level = 12 }

	663.1.1 = {
		liege = d_merv
	}
	671.1.1 = {
		liege = 0 # Nazak Tarkhan's rule
	}
	715.1.1 = {
		liege = d_merv
	}
	
	737.1.1 = {
		 188637 # Saman-Khuda Samanid
	}
	785.1.1 = {
		 163153 # Asad Samanid
	}
	825.1.1 = {
		 163154 # Ahmad Samanid
	}
	864.1.1 = {
		liege = k_transoxiana
	}
	864.1.1 = {
		 163099 # Nasr Samanid
	}
	977.1.1 = {
		liege = "d_sistan"
	}
	977.1.1 = {
		 144123
	}
	997.1.1 = {
		 144124
	}
	998.1.1 = {
		 144125
	}
	1030.1.1 = {
		 144126
	}
	1031.1.1 = {
		 144127
	}
	1041.1.1 = {
		 144128
	}
	1050.1.1 = {
		 144129
	}
	1050.6.1 = {
		 144130
	}
	1050.9.1 = {
		 144131
	}
	1053.1.1 = {
		 144132
	}
	1066.1.1 = {
		liege = e_persia
		 93130
	}
	1099.1.1 = {
		 144134
	}
	1100.1.1 = {
		liege = "d_merv"
		 93139
	}
	1140.1.1 = {
		 93140
	}
	1149.1.1 = {
		 93150
	}
	
	1180.1.1 = {
		 93151
	}
	1186.1.1 = {
		liege = d_sistan
		 144141
	}
	1203.1.1 = {
		 144142
	}
	1206.3.15 = {
		liege = d_kabul
		 170302
	}
	1212.1.1 = {
		liege = "k_transoxiana"
		 93053
	}
	1220.2.1 = {
		liege = e_mongol_empire
		 125501
	}
	1227.12.2 = {
		 93062
	}
	1242.1.1 = {
		 93064
	}
	1246.1.1 = {
		 93065
	}
	1252.1.1 = {
		 93064
	}
	1253.1.1 = {
		 93066
	}
	1260.1.1 = {
		 93068
	}
	1266.1.1 = {
		 93066
	}
	1266.9.1 = {
		 93070
	}
	1271.1.1 = {
		 93072
	}
	1272.1.1 = {
		 93074
	}
	1282.1.1 = {
		 93075
	}
	1307.1.1 = {
		 93076
	}
	1308.1.1 = {
		 93078
	}
	1309.1.1 = {
		 93079
	}
	1310.1.1 = {
		 93080
	}
	1318.1.1 = {
		 93079
	}
	1326.1.1 = {
		 93081
	}
	1329.1.1 = {
		 93082
	}
	1330.1.1 = {
		 93083
	}
	1334.1.1 = {
		 93084
	}
	1335.1.1 = {
		 93086
	}
}


c_west-tokharestan = {
	663.1.1 = {
		liege = d_merv
	}
	671.1.1 = {
		liege = 0 # Nazak Tarkhan's rule
	}
	715.1.1 = {
		liege = d_merv
	}
	
	737.1.1 = {
		 188637 # Saman-Khuda Samanid
	}
	785.1.1 = {
		 163153 # Asad Samanid
	}
	825.1.1 = {
		 163154 # Ahmad Samanid
	}
	864.1.1 = {
		liege = k_transoxiana
	}
	864.1.1 = {
		 163099 # Nasr Samanid
	}
	977.1.1 = {
		liege = "d_sistan"
	}
	977.1.1 = {
		 144123
	}
	997.1.1 = {
		 144124
	}
	998.1.1 = {
		 144125
	}
	1030.1.1 = {
		 144126
	}
	1031.1.1 = {
		 144127
	}
	1041.1.1 = {
		 144128
	}
	1050.1.1 = {
		 144129
	}
	1050.6.1 = {
		 144130
	}
	1050.9.1 = {
		 144131
	}
	1053.1.1 = {
		 144132
	}
	1059.1.1 = {
		 144133
	}
	1066.1.1 = {
		liege = e_persia
		 1229921
	}
	1073.7.7 = {
		 1229922
	}
	1084.7.7 = {
		 1229923
	}
	1099.1.1 = {
		 144134
	}
	1100.1.1 = {
		liege = "d_merv"
		 93139
	}
	1140.1.1 = {
		 93140
	}
	1149.1.1 = {
		 93150
	}
	
	1180.1.1 = {
		 93151
	}
	1186.1.1 = {
		liege = d_sistan
		 144141
	}
	1203.1.1 = {
		 144142
	}
	1206.3.15 = {
		liege = d_kabul
		 170302
	}
	1212.1.1 = {
		liege = k_transoxiana
		 93053
	}
	1220.2.1 = {
		liege = e_mongol_empire
		 125501
	}
	1227.12.2 = {
		 93062
	}
	1242.1.1 = {
		 93064
	}
	1246.1.1 = {
		 93065
	}
	1252.1.1 = {
		 93064
	}
	1253.1.1 = {
		 93066
	}
	1260.1.1 = {
		 93068
	}
	1266.1.1 = {
		 93066
	}
	1266.9.1 = {
		 93070
	}
	1271.1.1 = {
		 93072
	}
	1272.1.1 = {
		 93074
	}
	1282.1.1 = {
		 93075
	}
	1307.1.1 = {
		 93076
	}
	1308.1.1 = {
		 93078
	}
	1309.1.1 = {
		 93079
	}
	1310.1.1 = {
		 93080
	}
	1318.1.1 = {
		 93079
	}
	1326.1.1 = {
		 93081
	}
	1329.1.1 = {
		 93082
	}
	1330.1.1 = {
		 93083
	}
	1334.1.1 = {
		 93084
	}
	1335.1.1 = {
		 93086
	}
}


c_east-tokharestan = {
	867.1.1 = {	change_development_level = 7 }
	1066.1.1 = { change_development_level = 10 }

	663.1.1 = {
		liege = d_merv
	}
	671.1.1 = {
		liege = 0 # Nazak Tarkhan's rule
	}
	715.1.1 = {
		liege = d_merv
	}
	
	737.1.1 = {
		 188637 # Saman-Khuda Samanid
	}
	785.1.1 = {
		 163153 # Asad Samanid
	}
	825.1.1 = {
		 163154 # Ahmad Samanid
	}
	864.1.1 = {
		liege = k_transoxiana
	}
	864.1.1 = {
		 163099 # Nasr Samanid
	}
	977.1.1 = {
		liege = "d_sistan"
	}
	977.1.1 = {
		 144123
	}
	997.1.1 = {
		 144124
	}
	998.1.1 = {
		 144125
	}
	1030.1.1 = {
		 144126
	}
	1031.1.1 = {
		 144127
	}
	1041.1.1 = {
		 144128
	}
	1050.1.1 = {
		 144129
	}
	1050.6.1 = {
		 144130
	}
	1050.9.1 = {
		 144131
	}
	1053.1.1 = {
		 144132
	}
	1059.1.1 = {
		 144133
	}
	1066.1.1 = {
		liege = e_persia
		 93123
	}
	1073.7.7 = {
		 1229922
	}
	1084.7.7 = {
		 1229923
	}
	1099.1.1 = {
		 144134
	}
	1100.1.1 = {
		liege = "d_merv"
		 93139
	}
	1140.1.1 = {
		 93140
	}
	1149.1.1 = {
		 93150
	}
	
	1180.1.1 = {
		 93151
	}
	1186.1.1 = {
		liege = d_sistan
		 144141
	}
	1203.1.1 = {
		 144142
	}
	1206.3.15 = {
		liege = d_kabul
		 170302
	}
	1212.1.1 = {
		liege = k_transoxiana
		 93053
	}
	1220.2.1 = {
		liege = e_mongol_empire
		 125501
	}
	1227.12.2 = {
		 93062
	}
	1242.1.1 = {
		 93064
	}
	1246.1.1 = {
		 93065
	}
	1252.1.1 = {
		 93064
	}
	1253.1.1 = {
		 93066
	}
	1260.1.1 = {
		 93068
	}
	1266.1.1 = {
		 93066
	}
	1266.9.1 = {
		 93070
	}
	1271.1.1 = {
		 93072
	}
	1272.1.1 = {
		 93074
	}
	1282.1.1 = {
		 93075
	}
	1307.1.1 = {
		 93076
	}
	1308.1.1 = {
		 93078
	}
	1309.1.1 = {
		 93079
	}
	1310.1.1 = {
		 93080
	}
	1318.1.1 = {
		 93079
	}
	1326.1.1 = {
		 93081
	}
	1329.1.1 = {
		 93082
	}
	1330.1.1 = {
		 93083
	}
	1334.1.1 = {
		 93084
	}
	1335.1.1 = {
		 93086
	}
}

d_nasa = {
	867.1.1 = {	change_development_level = 3 }
	1066.1.1 = { change_development_level = 6 }
	
	867.1.1 = {
		liege = k_khorasan	#Tahirids
		 45106 # Faraz
		government = feudal_government
	}
	899.1.1 = {
		 0
	}
}

c_abivard = {
	650.1.1 = {
		liege = d_merv
	}
	
	768.1.1 = {
		 188602 # Homayd ibn Qahtaba
	}
	
	867.1.1 = {
		liege = k_transoxiana
		 45106 # Faraz
	}
	
	1050.1.1 = {
		government = tribal_government
		 1229930
		liege = e_persia
	}
	1067.1.1 = {
		government = clan_government
		 93122
		liege = d_merv
	}
	1073.1.1 = {
		 93123
	}
	1078.1.1 = {
		 93125
	}
	1098.1.1 = {
		 93128
	}
	1100.1.1 = {
		 93129
	}
	1110.1.1 = {
		 93126
	}
	1152.1.1 = {
		 93127
	}
	1161.1.1 = {
		 144101
	}
	
	1172.3.1 = {
		 230000
	}
	1200.1.1 = {
		 93052
	}
	1220.1.1 = {
		 194308
	}
	1221.1.1 = {
		 125520
	}
	1232.1.2 = {
		 478011
	}
	1240.1.1 = {
		 125526
	}
	1266.1.2 = {
		 125527
	}
	1300.1.1 = {
		 45102
	}
	1335.1.1 = {
		 45100
	}

}


c_farava = {
	650.1.1 = {
		liege = d_merv
	}
	
	768.1.1 = {
		 188602 # Homayd ibn Qahtaba
	}
	
	865.1.1 = {
		liege = k_transoxiana
		 45106 # Faraz
	}
	
	1066.1.1 = {
		government = tribal_government
		liege = e_persia	#Seljuk
		 1229929
	}
	1079.1.1 = {
		liege = d_merv
		 93123
	}
	1078.1.1 = {
		 93125
	}
	1098.1.1 = {
		 93128
	}
	1100.1.1 = {
		 93129
	}
	1110.1.1 = {
		 93126
	}
	1152.1.1 = {
		 93127
	}
	1161.1.1 = {
		 144101
	}
	
	1172.3.1 = {
		 230000
	}
	1200.1.1 = {
		 93052
	}
	1220.1.1 = {
		 194308
	}
	1221.1.1 = {
		 125520
	}
	1232.1.2 = {
		 478011
	}
	1240.1.1 = {
		 125526
	}
	1266.1.2 = {
		 125527
	}
	1300.1.1 = {
		 45102
	}
	1335.1.1 = {
		 45100
	}

}


d_kohestan = {
	867.1.1 = {	change_development_level = 3 }
	1066.1.1 = { change_development_level = 6 }

}

c_qain = {
	650.1.1 = {
		liege = d_merv
	}
	
	768.1.1 = {
		 188602 # Homayd ibn Qahtaba
	}
	
	862.1.1 = {
		 163100
	}
	867.1.1 = {
		 248307 # Perhaps a tad far from home for the Banijurids.
		liege = k_makran
	}
	1066.1.1 = {
		liege = d_nishapur
		 tajik0002
	}
	1073.1.1 = {
		liege = d_merv
		 93123
	}
	1078.1.1 = {
		 93125
	}
	1098.1.1 = {
		 93128
	}
	1100.1.1 = {
		 93129
	}
	1110.1.1 = {
		 93126
	}
	1152.1.1 = {
		 93127
	}
	1161.1.1 = {
		 144101
	}
	
	1172.3.1 = {
		 230000
	}
	1200.1.1 = {
		 93052
	}
	1220.1.1 = {
		 194308
	}
	1221.1.1 = {
		 125520
	}
	1232.1.2 = {
		 478011
	}
	1240.1.1 = {
		 125526
	}
	1266.1.2 = {
		 125527
	}
	1300.1.1 = {
		 45102
	}
	1335.1.1 = {
		 45100
	}

}


c_tun = {
	650.1.1 = {
		liege = d_merv
	}
	
	768.1.1 = {
		 188602 # Homayd ibn Qahtaba
	}
	
	862.1.1 = {
		 163100
	}
	867.1.1 = {
		 248307 # Perhaps a tad far from home for the Banijurids.
		liege = k_makran
	}

	1066.1.1 = {
		liege = d_nishapur
		 tajik0002
	}
	1073.1.1 = {
		liege = d_merv
		 93123
	}
	1078.1.1 = {
		 93125
	}
	1098.1.1 = {
		 93128
	}
	1100.1.1 = {
		 93129
	}
	1110.1.1 = {
		 93126
	}
	1152.1.1 = {
		 93127
	}
	1161.1.1 = {
		 144101
	}
	
	1172.3.1 = {
		 230000
	}
	1200.1.1 = {
		 93052
	}
	1220.1.1 = {
		 194308
	}
	1221.1.1 = {
		 125520
	}
	1232.1.2 = {
		 478011
	}
	1240.1.1 = {
		 125526
	}
	1266.1.2 = {
		 125527
	}
	1300.1.1 = {
		 45102
	}
	1335.1.1 = {
		 45100
	}

}

