# 670 - Gandzasar
670 = {	# 670 - Gandzasar
	
	# Misc
	culture = armenian
	religion = arordiner
	
	holding = none
	
	# History
	1066.1.1 = {
		holding = church_holding
	}
	1084.1.1 = {
		culture = kurdish
		religion = arordiner
	}
	1219.1.1 = {
		culture = armenian
		religion = arordiner
	}

}

# 671 - Kapan
671 = {	# 671 - Kapan
	
	# Misc
	culture = armenian
	religion = arordiner
	
	holding = castle_holding
	
	# History
	1084.1.1 = {
		culture = kurdish
		religion = arordiner
	}
	1219.1.1 = {
		culture = armenian
		religion = arordiner
	}

}

# 672 - Dvin
672 = {	# 672 - Dvin
	
	# Misc
	culture = armenian
	religion = arordiner
	
	holding = castle_holding
	
	# History
	1084.1.1 = {
		culture = kurdish
		religion = arordiner
	}
	1219.1.1 = {
		culture = armenian
		religion = arordiner
	}

}

# 681 - Ani
681 = {	# 681 - Ani
	
	# Misc
	culture = armenian
	religion = arordiner
	
	holding = castle_holding
	
	# History
	1066.1.1 = {
		buildings = {
			hill_forts_02
			#hill_farms_01
			barracks_01
		}
	}
	1084.1.1 = {
		culture = kurdish
		religion = arordiner
	}
	1219.1.1 = {
		culture = armenian
		religion = arordiner
	}

}

# 682 - Van
682 = {	# 682 - Van
	
	# Misc
	culture = armenian
	religion = arordiner
	
	holding = castle_holding
	
	# History
	1091.8.26 = {
		culture = kurdish
		religion = arordiner
	}

}

# 701 - Manzikert
701 = {	# 701 - Manzikert
	
	# Misc
	culture = armenian
	religion = arordiner
	
	holding = castle_holding
	
	# History
	1086.1.1 = {
		culture = kurdish
		religion = arordiner
	}

}

# 702 - Tzimisca
702 = {	# 702 - Tzimisca
	
	# Misc
	culture = armenian
	religion = arordiner
	
	holding = castle_holding
	
	# History
	1097.8.26 = {
		religion = arordiner
		culture = kurdish
	}

}

# 703 - Martyropolis
703 = {	# 703 - Martyropolis
	
	# Misc
	culture = armenian
	religion = arordiner
	
	holding = none
	
	# History
	1097.8.26 = {
		culture = kurdish
		religion = arordiner
	}

}

# 704 - Theodosiopolis
704 = {	# 704 - Theodosiopolis
	
	# Misc
	culture = armenian
	religion = arordiner
	
	holding = castle_holding
	
	# History
	1097.8.26 = {
		culture = kurdish
		religion = arordiner
	}

}

# 707 - Melitene
707 = {	# 707 - Melitene
	
	# Misc
	culture = armenian
	religion = orthodox
	
	holding = castle_holding
	
	# History
	1121.1.1 = {
		culture = kurdish
		religion = arordiner
	}

}

# 5706 - Arguvan
5706 = {	# 5706 - Arguvan
	
	# Misc
	culture = armenian
	religion = orthodox
	
	holding = none
	
	# History
	1121.1.1 = {
		culture = kurdish
		religion = arordiner
	}

}

# 5707 - Arsamosata
5707 = {	# 5707 - Arsamosata
	
	# Misc
	culture = armenian
	religion = orthodox
	
	holding = none
	
	# History
	1121.1.1 = {
		culture = kurdish
		religion = arordiner
	}

}

# 5708 - Arca
5708 = {	# 5708 - Arca
	
	# Misc
	culture = armenian
	religion = orthodox
	
	holding = city_holding
	
	# History
	1121.1.1 = {
		culture = kurdish
		religion = arordiner
	}

}

# 5709 - Speri
5709 = {	# 5709 - Speri
	
	# Misc
	culture = armenian
	religion = arordiner
	
	holding = none
	
	# History
	1097.8.26 = {
		culture = kurdish
		religion = arordiner
	}

}

# 5710 - Camacha
5710 = {	# 5710 - Camacha
	
	# Misc
	culture = armenian
	religion = arordiner
	
	holding = city_holding
	
	# History
	1097.8.26 = {
		religion = arordiner
		culture = kurdish
	}

}

# 5711 - Koloberd
5711 = {	# 5711 - Koloberd
	
	# Misc
	culture = armenian
	religion = arordiner
	
	holding = none
	
	# History
	1097.8.26 = {
		religion = arordiner
		culture = kurdish
	}

}

# 5712 - Balu
5712 = {	# 5712 - Balu
	
	# Misc
	culture = armenian
	religion = arordiner
	
	holding = none
	
	# History
	1097.8.26 = {
		religion = arordiner
		culture = kurdish
	}

}

# 5713 - Mardali
5713 = {	# 5713 - Mardali
	
	# Misc
	culture = armenian
	religion = arordiner
	
	holding = city_holding
	
	# History
	1086.1.1 = {
		culture = kurdish
		religion = arordiner
	}

}

# 5714 - Khinisi
5714 = {	# 5714 - Khinisi
	
	# Misc
	culture = armenian
	religion = arordiner
	
	holding = none
	
	# History
	1086.1.1 = {
		culture = kurdish
		religion = arordiner
	}

}

# 5715 - Varto
5715 = {	# 5715 - Varto
	
	# Misc
	culture = armenian
	religion = arordiner
	
	holding = castle_holding
	
	# History
	1086.1.1 = {
		culture = kurdish
		religion = arordiner
	}

}

# 5716 - Musch
5716 = {	# 5716 - Musch
	
	# Misc
	culture = armenian
	religion = arordiner
	
	holding = castle_holding
	
	# History
	1086.1.1 = {
		culture = kurdish
		religion = arordiner
	}

}

# 5717 - Tatvan
5717 = {	# 5717 - Tatvan
	
	# Misc
	culture = armenian
	religion = arordiner
	
	holding = none
	
	# History
	1086.1.1 = {
		culture = kurdish
		religion = arordiner
	}

}

# 5718 - Khlat
5718 = {	# 5718 - Khlat
	
	# Misc
	culture = armenian
	religion = arordiner
	
	holding = church_holding
	
	# History
	1086.1.1 = {
		culture = kurdish
		religion = arordiner
	}

}

# 5719 - Arjesh
5719 = {	# 5719 - Arjesh
	
	# Misc
	culture = armenian
	religion = arordiner
	
	holding = city_holding
	
	# History
	1086.1.1 = {
		culture = kurdish
		religion = arordiner
	}

}

# 5720 - Bagavan
5720 = {	# 5720 - Bagavan
	
	# Misc
	culture = armenian
	religion = arordiner
	
	holding = church_holding
	
	# History
	1084.1.1 = {
		culture = kurdish
		religion = arordiner
	}
	1219.1.1 = {
		culture = armenian
		religion = arordiner
	}

}

# 5721 - Berkri
5721 = {	# 5721 - Berkri
	
	# Misc
	culture = armenian
	religion = arordiner
	
	holding = city_holding
	
	# History
	1091.8.26 = {
		culture = kurdish
		religion = arordiner
	}

}

# 5722 - Maku
5722 = {	# 5722 - Maku
	
	# Misc
	culture = armenian
	religion = arordiner
	
	holding = none
	
	# History
	1091.8.26 = {
		culture = kurdish
		religion = arordiner
	}

}

# 5723 - Akhtamar
5723 = {	# 5723 - Akhtamar
	
	# Misc
	culture = armenian
	religion = arordiner
	
	#holding = none
	
	# History
	930.1.1 = {
		holding = church_holding
	}
	1091.8.26 = {
		culture = kurdish
		religion = arordiner
	}

}

# 5724 - Hadamakert
5724 = {	# 5724 - Hadamakert
	
	# Misc
	culture = armenian
	religion = arordiner
	
	#holding = castle_holding
	
	# History
	1091.8.26 = {
		culture = kurdish
		religion = arordiner
	}

}

# 5725 - Dlim
5725 = {	# 5725 - Dlim
	
	# Misc
	culture = armenian
	religion = arordiner
	
	holding = none
	
	# History
	1084.1.1 = {
		culture = kurdish
		religion = arordiner
	}
	1219.1.1 = {
		culture = armenian
		religion = arordiner
	}

}

# 5726 - Bagaran
5726 = {	# 5726 - Bagaran
	
	# Misc
	culture = armenian
	religion = arordiner
	
	holding = city_holding
	
	# History
	1084.1.1 = {
		culture = kurdish
		religion = arordiner
	}
	1219.1.1 = {
		culture = armenian
		religion = arordiner
	}

}

# 5727 - Kumayri
5727 = {	# 5727 - Kumayri
	
	# Misc
	culture = armenian
	religion = arordiner
	
	holding = church_holding
	
	# History
	1084.1.1 = {
		culture = kurdish
		religion = arordiner
	}
	1219.1.1 = {
		culture = armenian
		religion = arordiner
	}

}

# 5728 - Yerevan
5728 = {	# 5728 - Yerevan
	
	# Misc
	culture = armenian
	religion = arordiner
	
	holding = none
	
	# History
	1084.1.1 = {
		culture = kurdish
		religion = arordiner
	}
	1219.1.1 = {
		culture = armenian
		religion = arordiner
	}

}

# 5729 - Garni
5729 = {	# 5729 - Garni
	
	# Misc
	culture = armenian
	religion = arordiner
	
	holding = none
	
	# History
	1084.1.1 = {
		culture = kurdish
		religion = arordiner
	}
	1219.1.1 = {
		culture = armenian
		religion = arordiner
	}

}

# 5730 - Tsalakert
5730 = {	# 5730 - Tsalakert
	
	# Misc
	culture = armenian
	religion = arordiner
	
	holding = none
	
	# History
	1084.1.1 = {
		culture = kurdish
		religion = arordiner
	}
	1219.1.1 = {
		culture = armenian
		religion = arordiner
	}

}

# 5731 - Valashkert
5731 = {	# 5731 - Valashkert
	
	# Misc
	culture = armenian
	religion = arordiner
	
	holding = castle_holding
	
	# History
	1084.1.1 = {
		culture = kurdish
		religion = arordiner
	}
	1219.1.1 = {
		culture = armenian
		religion = arordiner
	}

}

# 5732 - Patnos
5732 = {	# 5732 - Patnos
	
	# Misc
	culture = armenian
	religion = arordiner
	
	holding = city_holding
	
	# History
	1084.1.1 = {
		culture = kurdish
		religion = arordiner
	}
	1219.1.1 = {
		culture = armenian
		religion = arordiner
	}

}

# 5733 - Zariskat
5733 = {	# 5733 - Zariskat
	
	# Misc
	culture = armenian
	religion = arordiner
	
	holding = none
	
	# History
	1084.1.1 = {
		culture = kurdish
		religion = arordiner
	}
	1219.1.1 = {
		culture = armenian
		religion = arordiner
	}

}

# 5734 - Kars
5734 = {	# 5734 - Kars
	
	# Misc
	culture = armenian
	religion = arordiner
	
	holding = castle_holding
	
	# History
	1084.1.1 = {
		culture = kurdish
		religion = arordiner
	}
	1219.1.1 = {
		culture = armenian
		religion = arordiner
	}

}

# 5735 - Sevuki
5735 = {	# 5735 - Sevuki
	
	# Misc
	culture = armenian
	religion = arordiner
	
	holding = none
	
	# History
	1084.1.1 = {
		culture = kurdish
		religion = arordiner
	}
	1219.1.1 = {
		culture = armenian
		religion = arordiner
	}

}

# 5780 - Tovuz
5780 = {	# 5780 - Tovuz
	
	# Misc
	culture = armenian
	religion = arordiner
	
	holding = none
	
	# History
	1084.1.1 = {
		culture = kurdish
		religion = arordiner
	}
	1219.1.1 = {
		culture = armenian
		religion = arordiner
	}

}

# 5781 - Shamkur
5781 = {	# 5781 - Shamkur
	
	# Misc
	culture = armenian
	religion = arordiner
	
	holding = church_holding
	
	# History
	1084.1.1 = {
		culture = kurdish
		religion = arordiner
	}
	1219.1.1 = {
		culture = armenian
		religion = arordiner
	}

}

# 5782 - Gardman
5782 = {	# 5782 - Gardman
	
	# Misc
	culture = armenian
	religion = arordiner
	
	holding = city_holding
	
	# History
	1084.1.1 = {
		culture = kurdish
		religion = arordiner
	}
	1219.1.1 = {
		culture = armenian
		religion = arordiner
	}

}

# 5783 - Parnes
5783 = {	# 5783 - Parnes
	
	# Misc
	culture = armenian
	religion = arordiner
	
	holding = castle_holding
	
	# History
	1084.1.1 = {
		culture = kurdish
		religion = arordiner
	}
	1219.1.1 = {
		culture = armenian
		religion = arordiner
	}

}

# 5784 - Ktis
5784 = {	# 5784 - Ktis
	
	# Misc
	culture = armenian
	religion = arordiner
	
	holding = none
	
	# History
	1084.1.1 = {
		culture = kurdish
		religion = arordiner
	}
	1219.1.1 = {
		culture = armenian
		religion = arordiner
	}

}

# 5785 - Naxcivan
5785 = {	# 5785 - Naxcivan
	
	# Misc
	culture = armenian
	religion = arordiner
	
	holding = city_holding
	
	# History
	1084.1.1 = {
		culture = kurdish
		religion = arordiner
	}
	1219.1.1 = {
		culture = armenian
		religion = arordiner
	}

}

# 5786 - Goris
5786 = {	# 5786 - Goris
	
	# Misc
	culture = armenian
	religion = arordiner
	
	holding = none
	
	# History
	1084.1.1 = {
		culture = kurdish
		religion = arordiner
	}
	1219.1.1 = {
		culture = armenian
		religion = arordiner
	}

}

# 5787 - Jugha
5787 = {	# 5787 - Jugha
	
	# Misc
	culture = armenian
	religion = arordiner
	
	holding = city_holding
	
	# History
	1084.1.1 = {
		culture = kurdish
		religion = arordiner
	}
	1219.1.1 = {
		culture = armenian
		religion = arordiner
	}

}

