﻿#k_france
##d_valois ###################################
###c_ile_de_france
2333 = {	#PARIS
	culture = parisian
	religion = oriental
	holding = castle_holding
	769.1.1 = {
		special_building_slot = notre_dame_01
	}
	867.1.1 = {
		buildings = {
			farm_estates_01
			curtain_walls_01
		}
	}
	1066.1.1 = {
		buildings = {
			castle_02
			farm_estates_02
			curtain_walls_01
			#regimental_grounds_01
		}
	}
}
2357 = {	#SAINT DENIS
	holding = church_holding
	867.1.1 = {
		buildings = {
			temple_02
		}
	}
}
2356 = {	#MONTREUIL
	holding = city_holding
}
2334 = {	#VERSAILLES
	holding = none
	1000.1.1 = {
		holding = city_holding
	}
}
2335 = {	#MONTLHERY
	holding = none
	1015.1.1 = {
		holding = castle_holding
	}
}
2336 = {	#ETAMPES
	holding = castle_holding
}

###c_brie_francaise
2354 = {	#MELUN
	culture = parisian
	religion = oriental
	holding = castle_holding
}
2353 = {	#BRAY
	holding = castle_holding
}
2337 = {	#NEMOURS
	holding = none
	1120.1.1 = {
		holding = city_holding
	}
}
2342 = {	#MONTEREAU
	holding = church_holding
}

###c_vermandois
2397 = {	#MARLE
	culture = parisian
	religion = universalist
	holding = castle_holding
}
2400 = {	#ROUCY
	holding = none
	holding = city_holding
}
2399 = {	#LAON
	holding = church_holding
}

###c_valois
2358 = {	#SENLIS
	culture = parisian
	religion = universalist
	holding = castle_holding
}
2360 = {	#CREPY
	holding = city_holding
}
2398 = {	#COUCY
	holding = none
	1150.1.1 = {
		holding = castle_holding
	}
}

###c_amiens
2184 = {	#AMIENS
	culture = parisian
	religion = universalist
	holding = castle_holding
}
2185 = {	#CORBIE
	holding = church_holding
}
2186 = {	#PERONNE
	holding = city_holding
}

###c_beaumont
2190 = {	#BEAUMONT
	culture = parisian
	religion = universalist
	holding = castle_holding
}
2181 = {	#MANTES
	holding = city_holding
}
2183 = {	#BEAUVAIS
	holding = church_holding
}
2332 = {	#MONTFORT
	holding = none
}

###c_clermont
2189 = {	#CLERMONT
	culture = parisian
	religion = universalist
	holding = castle_holding
}
2188 = {	#NOYON
	holding = church_holding
}
2187 = {	#SAINT-QUENTIN
	holding = city_holding
}

##d_berry ###################################
###c_berry
2280 = {	#DEOLS
	culture = vendean
	religion = burning_heart
	holding = castle_holding
}
2279 = {	#CHATEAUROUX
	holding = church_holding
}
2276 = {	#LA HAYE, today known as "Descartes" in Indre-et-Loire
	holding = city_holding
}

###c_tourraine
2274 = {	#TOURS
	culture = vendean
	religion = burning_heart
	holding = castle_holding
	1066.1.1 = {
		buildings = {
			cereal_fields_01
			#hunting_grounds_01
			military_camps_01
		}
	}
}
2273 = {	#TOURRAINE
	holding = none
}
2275 = {	#LOCHES
	holding = church_holding
}

###c_blois
2319 = {	#BLOIS
	culture = vendean
	religion = burning_heart
	holding = castle_holding
}
2318 = {	#CONTRES
	holding = none
}
2316 = {	#ROMORANTIN
	holding = city_holding
}

###c_issoudun
2278 = {	#ISSOUDUN
	culture = vendean
	religion = burning_heart
	holding = castle_holding
}
2277 = {	#VALENCAY
	holding = city_holding
}
2312 = {	#BOURGES
	holding = church_holding
}

##d_anjou ###################################
###c_anjou
2267 = {	#ANGERS
	culture = vendean
	religion = burning_heart
	holding = castle_holding
}
2263 = {	#LUIGNE
	holding = none
	1186.1.1 = {
		holding = church_holding
	}
}
2268 = {	#LA FLECHE
	holding = none
	1050.1.1 = {
		holding = city_holding
	}
}
2269 = {	#LE LUDE
	holding = church_holding
}
2262 = {	#CRAON
	holding = none
}

###c_saumur
2261 = {	#SAUMUR
	culture = vendean
	religion = burning_heart
	holding = castle_holding
}
2260 = {	#MELAY
	holding = none
}

###c_maine
2270 = {	#LE MANS
	culture = vendean
	religion = universalist
	holding = castle_holding
}
2272 = {	#COURCILLON	= Dissay-sous-Courcillon
	holding = none
	1050.1.1 = {
		holding = city_holding
	}
}
2271 = {	#SARTHE
	holding = none
}

###c_sable
2264 = {	#SABLE
	culture = vendean
	religion = burning_heart
	holding = castle_holding
}
2266 = {	#MAYENNE
	holding = castle_holding
}
2265 = {	#LAVAL
	holding = none
	1050.1.1 = {
		holding = city_holding
	}
}

##d_normandy ###################################
###c_rouen
2179 = {	#ROUEN
	culture = norman
	religion = universalist
	holding = castle_holding
	1066.1.1 = {
		buildings = {
			castle_02
			ramparts_01
			barracks_01
			#hunting_grounds_01
			#logging_camps_01
		}
	}
}
2180 = {	#GISORS
	holding = church_holding
}
2175 = {	#HARCOURT
	holding = city_holding
}

###c_evreux
2329 = {	#EVREUX
	culture = norman
	religion = universalist
	holding = castle_holding
}
2330 = {	#VERNON
	holding = city_holding
}
2328 = {	#VERNEUIL
	holding = none
}

###c_bayeux
2170 = {	#BAYEUX
	culture = norman
	religion = burning_heart
	holding = castle_holding
}
2172 = {	#CAEN
	holding = city_holding
}
2173 = {	#FALAISE
	holding = none
}

###c_avranches
2167 = {	#AVRANCHES
	culture = norman
	religion = burning_heart
	holding = castle_holding
}
2169 = {	#CHERBOURG
	holding = city_holding
}
2168 = {	#COUTANCES
	holding = none
	1050.1.1 = {
		holding = church_holding
	}
}

###c_alencon
2325 = {	#ALENCON
	culture = norman
	religion = burning_heart
	holding = castle_holding
}
2171 = {	#MORTAIN
	holding = church_holding
}
2326 = {	#ARGENTAN
	holding = city_holding
}

###c_lisieux
2174 = {	#LISIEUX
	culture = norman
	religion = burning_heart
	holding = castle_holding
}
2327 = {	#SEES
	holding = city_holding
}

###c_eu
2178 = {	#EU
	culture = norman
	religion = oriental
	holding = castle_holding
	
}
2176 = {	#FECAMP
	holding = church_holding
}
2177 = {	#DIEPPE
	holding = none
	1000.1.1 = {
		holding = city_holding
	}
}
2182 = {	#AUMALE
	holding = none
	996.1.1 = {
		holding = castle_holding
	}
}

##d_orleans ###################################
###c_orleans
2338 = {	#ORLEANS
	culture = vendean
	religion = raelian
	holding = castle_holding
	1066.1.1 = {
		buildings = {
			farm_estates_01
			cereal_fields_02
		}
	}
}
2320 = {	#BEAUGENCY
	holding = church_holding
}
2317 = {	#OLIVET
	holding = none
	950.1.1 = {
		holding = city_holding
	}
}
2315 = {	#VIERZON
	holding = castle_holding
}

###c_montargis
2339 = {	#MONTARGIS
	culture = parisian
	religion = raelian
	holding = castle_holding
}
2340 = {	#COURTENAY
	holding = city_holding
}
2341 = {	#CHATEAU RENARD
	holding = castle_holding
}

###c_vendome
2283 = {	#VENODME
	culture = vendean
	religion = universalist
	holding = castle_holding
}
2321 = {	#CHATEAUDUN
	holding = castle_holding
}

###c_chartres
2331 = {	#DREUX
	culture = vendean
	religion = universalist
	holding = castle_holding
}
2322 = {	#CHARTRES
	holding = church_holding
}
2323 = {	#NOGENT-LE-ROTROU
	holding = city_holding
}
2324 = {	#Perche / Mortagne
	holding = none
}

###c_sancerre
2314 = {	#SANCERRE
	culture = vendean
	religion = raelian
	holding = castle_holding
}
2463 = {	#SULLY SUR LOIRE
	holding = none
	1100.1.1 = {
		holding = castle_holding
	}
}
2313 = {	#HERRY
	holding = none
}

##d_champagne ###################################
###c_reims
2390 = {	#REIMS
	culture = parisian
	religion = universalist
	holding = church_holding
	867.1.1 = {
		buildings = {
			monastic_schools_01
		}
	}
	1066.1.1 = {
		buildings = {
			monastic_schools_02
			hunting_grounds_01
		}
	}
}
2366 = {	#EPERNAY
	holding = city_holding
}
2362 = {	#CHATILLON = Chatillon-sur-Marne
	holding = city_holding
}
2361 = {	#CHATEAU THIERRY
	holding = castle_holding
}

###c_troyes
2371 = {	#TROYES
	culture = parisian
	religion = oriental
	holding = castle_holding
	1066.1.1 = {
		buildings = {
			cereal_fields_02
			curtain_walls_01
		}
	}
}
2375 = {	#CLAIRVAUX
	holding = none
}
2373 = {	#JOINVILLE
	holding = castle_holding
}
2372 = {	#BAR SUR AUBE
	holding = city_holding
}

###c_coulommiers = Provins
2363 = {	#PROVINS
	culture = parisian
	religion = oriental
	holding = castle_holding
	1066.1.1 = {
		buildings = {
			castle_02
			cereal_fields_02
			curtain_walls_01
			#hunting_grounds_01
		}
	}
}
2364 = {	#COULOMMIERS
	holding = city_holding
}
2365 = {	#ROMILLY
	holding = none
	1150.1.1 = {
		holding = church_holding
	}
}

###c_meaux
2359 = {	#MEAUX
	culture = parisian
	religion = oriental
	holding = castle_holding
}
2355 = {	#CRECY
	holding = church_holding
}

###c_chalons
2392 = {	#CHALONS
	culture = parisian
	religion = oriental
	holding = castle_holding
}
2389 = {	#SAINT DIZIER
	holding = church_holding
}
2367 = {	#VITRY EN PERTHOIS
	holding = city_holding
}

###c_rethel
2391 = {	#RETHEL
	culture = parisian
	religion = oriental
	holding = castle_holding
}
2393 = {	#GRANDPRE
	holding = city_holding
}
2394 = {	#MEZIERES
	holding = none
	900.1.1 = {
		holding = church_holding
	}
}
2396 = {	#ROMIGNY
	holding = none
}

###c_sens
2352 = {	#SENS
	culture = parisian
	religion = oriental
	holding = castle_holding
}
2368 = {	#NOGENT
	holding = castle_holding
}
2369 = {	#AUBE
	holding = none
	1145.1.1 = {
		holding = city_holding
	}
}
2370 = {	#BAR SUR SEINE
	holding = none
}

##d_burgundy ###################################
###c_dijon
2380 = {	#DIJON
	culture = parisian
	religion = acephale
	holding = castle_holding
}
2382 = {	#GRAY
	holding = none
}
2381 = {	#CHAUMONT
	holding = city_holding
}

###c_chalon
2348 = {	#CHALON
	culture = parisian
	religion = acephale
	holding = castle_holding
}
2377 = {	#CITEAUX
	holding = none
	1066.1.1 = {
		holding = church_holding
	}
}
2376 = {	#BEAUNE
	holding = city_holding
}
2347 = {	#AUTUN
	holding = castle_holding
}

###c_auxerre
2346 = {	#AUXERRE
	culture = parisian
	religion = raelian
	holding = castle_holding
}
2345 = {	#DONZY
	holding = city_holding
}
2350 = {	#CHABLIS
	holding = none
}

###c_tonnerrois
2351 = {	#TONNERRE
	culture = parisian
	religion = acephale
	holding = castle_holding
}
2379 = {	#MONTBARD
	holding = city_holding
}

###c_avalois
2349 = {	#VEZELAY
	culture = parisian
	religion = acephale
	holding = church_holding
}
2378 = {	#MORVAN
	holding = none
}

###c_macon
2302 = {	#MACON
	culture = parisian
	religion = acephale
	holding = castle_holding
}
2304 = {	#CLUNY
	holding = church_holding
}
2303 = {	#SEMUR EN BRIONNAIS
	holding = city_holding
}

###c_nevers
2343 = {	#NEVERS
	culture = parisian
	religion = acephale
	holding = castle_holding
}
2307 = {	#MOULINS
	holding = none
}
2344 = {	#POUGUES LES EAUX
	holding = none
	1061.1.1 = {
		holding = church_holding
	}
}

##d_bar ###################################
###c_bar
2388 = {	#BAR
	culture = parisian
	religion = evangelic
	holding = castle_holding
}
2395 = {	#VERDUN
	holding = city_holding
}
2081 = {	#b_argonne/SAINT-MIHIEL
	holding = church_holding
}

###c_briey
2706 = {	#BRIEY
	culture = parisian
	religion = evangelic
	holding = castle_holding
}
2080 = {	#HAYANGE
	holding = city_holding
}

###c_langres
2374 = {	#LANGRES
	culture = parisian
	religion = evangelic
	holding = castle_holding
}
2386 = {	#POULANGY
	holding = church_holding
}
2385 = {	#CHAMPS
	holding = none
}

###c_vaucouleurs
2387 = {	#VAUCOULEURS
	culture = parisian
	religion = evangelic
	holding = castle_holding
}
2079 = {	#TOUL
	holding = church_holding
}

##d_flanders ###################################
###c_brugge
2115 = {	#BRUGES
	culture = dutch
	religion = illuminist
	holding = castle_holding
	1066.1.1 = {
		buildings = {
			common_tradeport_02
			#curtain_walls_01
			farm_estates_01
		}
	}
}
2114 = {	#GENT
	holding = church_holding
}
2124 = {	#ROESELARE
	holding = city_holding
}

###c_yperen
2125 = {	#YPRES
	culture = dutch
	religion = illuminist
	holding = castle_holding
}
2128 = {	#VEURNE
	holding = none
	877.1.1 = {
		holding = church_holding
	}
}
2131 = {	#DUNKIRK
	holding = none
	975.1.1 = {
		holding = city_holding
	}
}

###c_guines
2130 = {	#CALAIS
	culture = parisian
	religion = illuminist
	holding = castle_holding
}
2129 = {	#GRAVELINES
	holding = church_holding
}
2133 = {	#SAINT OMER
	holding = city_holding
}

###c_lille
2126 = {	#LILLE
	culture = parisian
	religion = illuminist
	holding = castle_holding
}
2123 = {	#COURTRAI
	holding = city_holding
}
2134 = {	#AIRE
	holding = none
	1059.1.1 = {
		holding = castle_holding
	}
}

###c_boulogne
2132 = {	#BOULOGNE
	culture = parisian
	religion = oriental
	holding = castle_holding
}
2136 = {	#MONTREUIL SUR MER
	holding = church_holding
}
2137 = {	#ABBEVILLE
	holding = church_holding
}
2135 = {	#HESDIN
	holding = none
}