# 4343 - Bamiyan
4343 = {	# 1185 - Kabul
	
	# Misc
	culture = afghan
	religion = mahayana
	
	# History

	769.1.1 = {
		holding = castle_holding
		special_building = buddhas_of_bamian_01
	}

}
# 4500 - Ghazna
4500 = {	# 4500 - Ghazna
	
	# Misc
	culture = afghan
	religion = mahayana

	# History

	1000.1.1 = {
		religion = ashari
	}

}

# 4345 - Panjhir
4345 = {	# 4345 - Panjhir
	
	# Misc
	culture = afghan
	religion = mahayana

	# History
	867.1.1 = {
		holding = castle_holding
		special_building = pansjhir_mines_01
	}

	1000.1.1 = {
		religion = ashari
	}

}

4515 = {
	# Misc
	culture = kashmiri
	religion = mahayana

	# History

	1400.1.1 = {
		religion = ashari
	}
}
