﻿#k_sicily
##d_sicily ###################################
###c_palermo
2635 = {	#PALERMO
	culture = greek
	religion = sedevacantist
	holding = castle_holding
	856.9.1 = {
		culture = maghrebi
		religion = sedevacantist
	}
	# History
	867.1.1 = {
		buildings = {
			common_tradeport_01
			curtain_walls_01
		}
	}
	1066.1.1 = {
		buildings = {
			#common_tradeport_02
			#curtain_walls_01
			farm_estates_02
		}
	}
	1071.1.1 = {
		culture = sicilian
		religion = sedevacantist
	}
}
2636 = {	#TRAPANI
	holding = city_holding
}
2645 = {	#CALATAFIMI
	holding = none
	#Void to leave empty holdings
}
2644 = {	#MAZARA
	holding = none
	1066.1.1 = {
		holding = church_holding
	}
}

###c_messina
2633 = {	#MESSINA
	culture = greek
	religion = sedevacantist
	holding = castle_holding
	869.1.1 = {
		culture = maghrebi
		religion = sedevacantist
	}
	1057.1.1 = {
		culture = sicilian
		religion = sedevacantist
	}
}
2634 = {	#CEFALU
	holding = city_holding
}
2639 = {	#CATANIA
	holding = church_holding
}

###c_siracusa
2638 = {	#SYRACUSE
	culture = greek
	religion = sedevacantist
	holding = castle_holding
	904.1.1 = {
		culture = maghrebi
		religion = sedevacantist
	}
	1066.1.1 = {
		buildings = {
			common_tradeport_01
			curtain_walls_01
			#barracks_01
		}
	}
	1116.1.1 = {
		culture = sicilian
		religion = sedevacantist
	}
}
2643 = {	#LENTINI
	holding = none
}
2642 = {	#CALTAGIRONE
	holding = city_holding
}

###c_agrigento
2640 = {	#CASTROGIOVANNI
	culture = greek
	religion = sedevacantist
	holding = castle_holding
	874.1.24 = {
		culture = maghrebi
		religion = sedevacantist
	}
	1102.1.1 = {
		culture = sicilian
		religion = sedevacantist
	}
}
2637 = {	#AGRICENTO
	holding = city_holding
}
2641 = {	#CALTANISETTA
	holding = none
}

###c_malta
2646 = {	#MALTA
	culture = greek
	religion = sedevacantist
	holding = castle_holding
	895.1.1 = {
		culture = maghrebi
		religion = sedevacantist
	}
	1127.1.1 = {
		religion = sedevacantist
		culture = sicilian
	}
}

##d_benevento ###################################
###c_benevento
2609 = {	#BENEVENTO
	culture = lombard
	religion = sedevacantist
	holding = castle_holding
	1098.1.1 = { culture = sicilian }
}
2669 = {	#ALIFE
	holding = none
}
2607 = {	#ISERNIA
	holding = church_holding
}
2615 = {	#MELFI
	holding = none
	1045.1.1 = {
		holding = city_holding
	}
}
8757 = {	#ARIANO
	holding = city_holding
	#Ancient city
}

###c_foggia
2610 = {	#LUCERA
	culture = lombard
	religion = sedevacantist
	holding = castle_holding
	915.1.1 = {
		culture = greek
		religion = sedevacantist
	}
	1066.1.1 = {
		culture = sicilian
		religion = sedevacantist
	}
}
2605 = {	#LARINO
	holding = none
}
8758 = {	#VIESTE
	holding = city_holding
}

##d_capua ###################################
###c_capua
2606 = {	#CAPUA
	culture = lombard
	religion = sedevacantist
	holding = castle_holding
	1098.1.1 = { culture = sicilian }
}
2593 = {	#GAETA
	holding = city_holding
}
2602 = {	#CASSINO
	holding = none
}

###c_napoli
2608 = {	#NAPOLI
	culture = greek
	religion = sedevacantist
	holding = castle_holding
	867.1.1 = {
		buildings = {
			common_tradeport_01
			curtain_walls_01
		}
	}
	1066.1.1 = {
		buildings = {
			castle_02
			common_tradeport_02
			#curtain_walls_01
			farm_estates_01
		}
	}
	1139.4.1 = {
		culture = sicilian
		religion = sedevacantist
	}
}
2611 = {	#AMALFI
	holding = city_holding
	1066.1.1 = {
		buildings = {
			common_tradeport_02
			#guild_halls_01
		}
	}
}
8756 = {	#AVERSA
	holding = none
	1030.1.1 = {
		holding = city_holding
		#Founded in 1030
		#Bishopric since 1053
	}
}

##d_apulia ###################################
###c_apulia
2619 = {	#TRANI
	culture = lombard
	religion = sedevacantist
	holding = castle_holding
	1057.1.1 = { culture = sicilian }
	1066.1.1 = {
		buildings = {
			common_tradeport_02
			military_camps_01
		}
	}
}
2614 = {	#SIPONTO
	holding = city_holding
}
2618 = {	#VENOSA
	holding = none
	#void to leave some empty holdings
}
2617 = {	#ACERENZA
	holding = church_holding
}

###c_bari
2623 = {	#BARI
	culture = lombard
	religion = sedevacantist
	holding = castle_holding
	1057.1.1 = { culture = sicilian }
}
2624 = {	#MATERA
	holding = church_holding
}
2621 = {	#TARANTO
	holding = city_holding
}

###c_lecce
8755 = {	#LECCE
	culture = greek
	religion = sedevacantist
	holding = castle_holding
	1074.1.1 = {
		culture = sicilian
		religion = sedevacantist
	}
}
2622 = {	#BRINDISI
	holding = city_holding
}
2620 = {	#ORLANTO
	holding = none
}

##d_salerno ###################################
###c_salerno
2612 = {	#SALERNO
	culture = lombard
	religion = sedevacantist
	holding = castle_holding
	867.1.1 = {
		buildings = {
			common_tradeport_01
			curtain_walls_01
		}
	}
	1066.1.1 = {
		buildings = {
			common_tradeport_02
			curtain_walls_01
			#barracks_01
		}
	}
	1091.1.1 = { culture = sicilian	}
}
2613 = {	#MARATEA
	holding = city_holding
}
2616 = {	#POTENZA
	holding = none
}
8754 = {	#POLICASTRO	AKA Petilia Policastro
	holding = none
}

###c_camarda
2631 = {	#CAMARDA
	culture = lombard
	religion = sedevacantist
	holding = castle_holding
	1091.1.1 = { culture = sicilian	}
}
2632 = {	#STIGLIANO
	holding = none
}

##d_calabria ###################################
###c_reggio_calabria
2627 = {
	culture = greek
	religion = sedevacantist
	holding = castle_holding
	1055.1.1 = { culture = sicilian }
	1074.1.1 = { religion = sedevacantist }
}
2626 = {	#SQUILLUCE
	holding = city_holding
}
8751 = {	#TROPEA
	holding = church_holding
	#set as church_holding to have all 3 holding types
}

###c_cosenza
2628 = {	#COSENZA
	culture = greek
	religion = sedevacantist
	holding = castle_holding
	1074.1.1 = {
		culture = sicilian
		religion = sedevacantist
	}
}
2630 = {	#CASTROVILLARI
	holding = none
	1064.1.1 = {
		holding = city_holding
	}
}
8752 = {	#BELVEDERE
	holding = none
}

###c_rossano
2629 = {	#ROSSANO
	culture = greek
	religion = sedevacantist
	holding = castle_holding
	1074.1.1 = {
		culture = sicilian
		religion = sedevacantist
	}
}
2625 = {	#COTRONE
	holding = church_holding
}
8753 = {	#CATANZARO
	holding = city_holding
}
